\relax 
\providecommand\hyper@newdestlabel[2]{}
\providecommand\HyperFirstAtBeginDocument{\AtBeginDocument}
\HyperFirstAtBeginDocument{\ifx\hyper@anchor\@undefined
\global\let\oldcontentsline\contentsline
\gdef\contentsline#1#2#3#4{\oldcontentsline{#1}{#2}{#3}}
\global\let\oldnewlabel\newlabel
\gdef\newlabel#1#2{\newlabelxx{#1}#2}
\gdef\newlabelxx#1#2#3#4#5#6{\oldnewlabel{#1}{{#2}{#3}}}
\AtEndDocument{\ifx\hyper@anchor\@undefined
\let\contentsline\oldcontentsline
\let\newlabel\oldnewlabel
\fi}
\fi}
\global\let\hyper@last\relax 
\gdef\HyperFirstAtBeginDocument#1{#1}
\providecommand\HyField@AuxAddToFields[1]{}
\providecommand\HyField@AuxAddToCoFields[2]{}
\@writefile{toc}{\contentsline {section}{1}{1}{section*.1}}
\newlabel{section}{{}{1}{1}{section*.1}{}}
\@writefile{toc}{\contentsline {section}{1.1 2 pts}{1}{section*.2}}
\newlabel{pts}{{}{1}{1.1 2 pts}{section*.2}{}}
\@writefile{toc}{\contentsline {section}{1.2 5 pts}{1}{section*.3}}
\newlabel{pts-1}{{}{1}{1.2 5 pts}{section*.3}{}}
\@writefile{toc}{\contentsline {section}{1.3 5 pts}{1}{section*.4}}
\newlabel{pts-2}{{}{1}{1.3 5 pts}{section*.4}{}}
\@writefile{toc}{\contentsline {section}{1.4 2 pts}{2}{section*.5}}
\newlabel{pts-3}{{}{2}{1.4 2 pts}{section*.5}{}}
\@writefile{toc}{\contentsline {section}{1.5 5 pts}{2}{section*.6}}
\newlabel{pts-4}{{}{2}{1.5 5 pts}{section*.6}{}}
\@writefile{toc}{\contentsline {section}{1.6 5 pts}{5}{section*.7}}
\newlabel{pts-5}{{}{5}{1.6 5 pts}{section*.7}{}}
\@writefile{toc}{\contentsline {section}{1.7 5 pts}{6}{section*.8}}
\newlabel{pts-6}{{}{6}{1.7 5 pts}{section*.8}{}}
\@writefile{toc}{\contentsline {section}{1.8 5 pts}{7}{section*.9}}
\newlabel{pts-7}{{}{7}{1.8 5 pts}{section*.9}{}}
\@writefile{toc}{\contentsline {section}{2}{8}{section*.10}}
\newlabel{section-1}{{}{8}{2}{section*.10}{}}
\@writefile{toc}{\contentsline {subsection}{2.1 4 pts}{9}{section*.11}}
\newlabel{pts-8}{{}{9}{2.1 4 pts}{section*.11}{}}
\@writefile{toc}{\contentsline {subsection}{2.2 6 pts}{9}{section*.12}}
\newlabel{pts-9}{{}{9}{2.2 6 pts}{section*.12}{}}
\gdef \LT@i {\LT@entry 
    {1}{104.65172pt}\LT@entry 
    {1}{58.97838pt}\LT@entry 
    {1}{77.76543pt}\LT@entry 
    {1}{82.46039pt}\LT@entry 
    {1}{54.27625pt}\LT@entry 
    {1}{52.97838pt}}
\@writefile{toc}{\contentsline {section}{3}{10}{section*.13}}
\newlabel{section-2}{{}{10}{3}{section*.13}{}}
\@writefile{toc}{\contentsline {subsection}{3.1 5 pts}{10}{section*.14}}
\newlabel{pts-10}{{}{10}{3.1 5 pts}{section*.14}{}}
\@writefile{toc}{\contentsline {subsection}{3.2 5pts}{10}{section*.15}}
\newlabel{pts-11}{{}{10}{3.2 5pts}{section*.15}{}}
\@writefile{toc}{\contentsline {section}{4}{10}{section*.16}}
\newlabel{section-3}{{}{10}{4}{section*.16}{}}
\@writefile{toc}{\contentsline {subsection}{4.1 3 pts}{10}{section*.17}}
\newlabel{pts-12}{{}{10}{4.1 3 pts}{section*.17}{}}
\@writefile{toc}{\contentsline {subsection}{4.2 4 pts}{11}{section*.18}}
\newlabel{pts-13}{{}{11}{4.2 4 pts}{section*.18}{}}
\@writefile{toc}{\contentsline {subsection}{4.3 4 pts}{11}{section*.19}}
\newlabel{pts-14}{{}{11}{4.3 4 pts}{section*.19}{}}
\@writefile{toc}{\contentsline {subsection}{4.4 4 pts}{11}{section*.20}}
\newlabel{pts-15}{{}{11}{4.4 4 pts}{section*.20}{}}
\@writefile{toc}{\contentsline {subsection}{4.5 3 pts}{11}{section*.21}}
\newlabel{pts-16}{{}{11}{4.5 3 pts}{section*.21}{}}
\@writefile{toc}{\contentsline {subsection}{4.6 4 pts}{11}{section*.22}}
\newlabel{pts-17}{{}{11}{4.6 4 pts}{section*.22}{}}
\@writefile{toc}{\contentsline {subsection}{4.7 3 pts}{12}{section*.23}}
\newlabel{pts-18}{{}{12}{4.7 3 pts}{section*.23}{}}
\@writefile{toc}{\contentsline {section}{5 Replication and Data Analysis}{12}{section*.24}}
\newlabel{replication-and-data-analysis}{{}{12}{5 Replication and Data Analysis}{section*.24}{}}
\@writefile{toc}{\contentsline {subsection}{5.1 5 pts}{13}{section*.25}}
\newlabel{pts-19}{{}{13}{5.1 5 pts}{section*.25}{}}
\@writefile{toc}{\contentsline {subsection}{5.2 3 pts}{13}{section*.26}}
\newlabel{pts-20}{{}{13}{5.2 3 pts}{section*.26}{}}
\@writefile{toc}{\contentsline {subsection}{5.3 3 pts}{14}{section*.27}}
\newlabel{pts-21}{{}{14}{5.3 3 pts}{section*.27}{}}
\@writefile{toc}{\contentsline {subsection}{5.4 5 pts}{14}{section*.28}}
\newlabel{pts-22}{{}{14}{5.4 5 pts}{section*.28}{}}
\@writefile{toc}{\contentsline {subsection}{5.5 5 pts}{15}{section*.29}}
\newlabel{pts-23}{{}{15}{5.5 5 pts}{section*.29}{}}
